module Go_Gingonic_Server

go 1.13

require (
	github.com/gin-gonic/gin v1.4.0
	github.com/go-sql-driver/mysql v1.4.1
	github.com/gorilla/mux v1.7.3
	github.com/howeyc/fsnotify v0.9.1-0.20151003194602-f0c08ee9c607
	github.com/joho/godotenv v1.3.1-0.20190204044109-5c0e6c6ab1a0
	github.com/k9982874/golang-api-service-sample v0.0.0-20180612023237-0e800400b4e0
	github.com/mattn/go-colorable v0.1.4
	github.com/mattn/go-isatty v0.0.11-0.20191009155615-0e9ddb7c0c0a
	github.com/pilu/config v0.0.0-20131214182432-3eb99e6c0b9a
	github.com/pilu/fresh v0.0.0-20190826141211-0fa698148017
	golang.org/x/sys v0.0.0-20191018095205-727590c5006e
	gopkg.in/mgo.v2 v2.0.0-20190816093944-a6b53ec6cb22
)
